Categories:Reading,Internet
License:GPL-3.0
Web Site:https://github.com/ccrama/Slide/blob/HEAD/README.md
Source Code:https://github.com/ccrama/Slide
Issue Tracker:https://github.com/ccrama/Slide/issues
Changelog:https://github.com/ccrama/Slide/blob/HEAD/CHANGELOG.md

Name:Slide
Summary:Companion app for reddit
Description:
Companion app for browsing Reddit. A paid "pro" version is available and builds
from the same source.
.

Repo Type:git
Repo:https://github.com/ccrama/Slide

Build:5.2.2,172
    disable=synccit.jar
    commit=78126065c37a0dbdd4ad733632bee0a0defafcd2
    subdir=app
    gradle=prod,noGPlay
    forceversion=yes
    prebuild=sed -i -e '/withGPlayCompile/d' build.gradle

Build:5.3,179
    commit=a3976de76a4442a0c5b2c831c88552a926cfe51c
    subdir=app
    gradle=prod,noGPlay
    forceversion=yes
    prebuild=sed -i -e '/withGPlayCompile/d' -e 's/8g/2g/' build.gradle

Build:5.3.2.3,184
    commit=5.3.2.3
    subdir=app
    gradle=prod,noGPlay
    forceversion=yes
    prebuild=sed -i -e '/withGPlayCompile/d' -e 's/8g/2g/' build.gradle

Build:5.3.2.5,186
    commit=5.3.2.5
    subdir=app
    gradle=prod,noGPlay
    forceversion=yes
    prebuild=sed -i -e '/withGPlayCompile/d' -e 's/8g/2g/' build.gradle

Build:5.3.3,193
    commit=5.3.3
    subdir=app
    gradle=prod,noGPlay
    forceversion=yes
    prebuild=sed -i -e '/withGPlayCompile/d' -e 's/8g/2g/' build.gradle

Build:5.3.4,196
    commit=5.3.4
    subdir=app
    gradle=prod,noGPlay
    forceversion=yes
    prebuild=sed -i -e '/withGPlayCompile/d' -e 's/8g/2g/' build.gradle

Build:5.3.6,204
    commit=5.3.6
    subdir=app
    gradle=prod,noGPlay
    forceversion=yes
    prebuild=sed -i -e '/withGPlayCompile/d' -e 's/8g/2g/' build.gradle

Build:5.3.7,207
    commit=5.3.7
    subdir=app
    gradle=prod,noGPlay
    forceversion=yes
    prebuild=sed -i -e '/withGPlayCompile/d' -e 's/8g/2g/' build.gradle

Build:5.3.8,210
    commit=5.3.8
    subdir=app
    gradle=prod,noGPlay
    forceversion=yes
    prebuild=sed -i -e '/withGPlayCompile/d' -e 's/8g/2g/' build.gradle

Build:5.3.9.2,215
    commit=5.3.9.2
    subdir=app
    gradle=prod,noGPlay
    forceversion=yes
    prebuild=sed -i -e '/withGPlayCompile/d' -e 's/8g/2g/' build.gradle

Build:5.3.9.3,216
    commit=5.3.9.3
    subdir=app
    gradle=prod,noGPlay
    forceversion=yes
    prebuild=sed -i -e '/withGPlayCompile/d' -e 's/8g/2g/' build.gradle

Build:5.3.9.5,217
    commit=5.3.9.5
    subdir=app
    gradle=prod,noGPlay
    forceversion=yes
    prebuild=sed -i -e '/withGPlayCompile/d' -e 's/8g/2g/' build.gradle

Build:5.3.9.5-alpha3,219
    commit=5.3.9.5-alpha3
    subdir=app
    gradle=prod,noGPlay
    forceversion=yes
    prebuild=sed -i -e '/withGPlayCompile/d' -e 's/8g/2g/' build.gradle

Build:5.4-alpha1,220
    commit=5.4-alpha1
    subdir=app
    gradle=prod,noGPlay
    forceversion=yes
    prebuild=sed -i -e '/withGPlayCompile/d' -e 's/8g/2g/' build.gradle

Build:5.4,222
    commit=5.4
    subdir=app
    gradle=prod,noGPlay
    forceversion=yes
    prebuild=sed -i -e '/withGPlayCompile/d' -e 's/8g/2g/' build.gradle

Build:5.4.1,223
    commit=5.4.1
    subdir=app
    gradle=prod,noGPlay
    forceversion=yes
    prebuild=sed -i -e '/withGPlayCompile/d' -e 's/8g/2g/' build.gradle

Build:5.4.2.1,232
    commit=5.4.2.1
    subdir=app
    gradle=prod,noGPlay
    forceversion=yes
    prebuild=sed -i -e '/withGPlayCompile/d' -e 's/8g/2g/' build.gradle

Build:5.4.2.2,233
    commit=5.4.2.2
    subdir=app
    gradle=prod,noGPlay
    forceversion=yes
    prebuild=sed -i -e '/withGPlayCompile/d' -e 's/8g/2g/' build.gradle

Build:5.4.2.3,234
    commit=5.4.2.3
    subdir=app
    gradle=prod,noGPlay
    forceversion=yes
    prebuild=sed -i -e '/withGPlayCompile/d' -e 's/8g/2g/' build.gradle

Build:5.4.3,239
    commit=5.4.3
    subdir=app
    gradle=prod,noGPlay
    forceversion=yes
    prebuild=sed -i -e '/withGPlayCompile/d' -e 's/8g/2g/' build.gradle

Build:5.4.3.5,244
    commit=5.4.3.5
    subdir=app
    gradle=prod,noGPlay
    forceversion=yes
    prebuild=sed -i -e '/withGPlayCompile/d' -e 's/8g/2g/' build.gradle

Build:5.4.3.7,248
    commit=5.4.3.7
    subdir=app
    gradle=prod,noGPlay
    forceversion=yes
    prebuild=sed -i -e '/withGPlayCompile/d' -e 's/8g/2g/' build.gradle

Build:5.5,255
    commit=5.5
    subdir=app
    gradle=prod,noGPlay
    forceversion=yes
    prebuild=sed -i -e '/withGPlayCompile/d' -e 's/8g/2g/' build.gradle

Build:5.5.1,256
    commit=5.5.1
    subdir=app
    gradle=prod,noGPlay
    forceversion=yes
    prebuild=sed -i -e '/withGPlayCompile/d' -e 's/8g/2g/' build.gradle

Build:5.5.2,261
    commit=5.5.2
    subdir=app
    gradle=prod,noGPlay
    forceversion=yes
    prebuild=sed -i -e '/withGPlayCompile/d' -e 's/8g/2g/' build.gradle

Build:5.5.4,263
    commit=5.5.4
    subdir=app
    gradle=prod,noGPlay
    forceversion=yes
    prebuild=sed -i -e '/withGPlayCompile/d' -e 's/8g/2g/' build.gradle

Build:5.5.5,264
    commit=58d44b9c77cb4c0320e36dd1dae98e62fe7d0711
    subdir=app
    gradle=prod,noGPlay
    forceversion=yes
    prebuild=sed -i -e '/withGPlayCompile/d' -e 's/8g/2g/' build.gradle

Build:5.6,267
    commit=5.6
    subdir=app
    gradle=noGPlay
    forceversion=yes
    prebuild=sed -i -e '/withGPlayCompile/d' -e 's/8g/2g/' build.gradle

Build:5.6.1,270
    commit=5.6.1
    subdir=app
    gradle=noGPlay
    forceversion=yes
    prebuild=sed -i -e '/withGPlayCompile/d' -e 's/8g/2g/' build.gradle

Build:5.6.2,271
    commit=5.6.2
    subdir=app
    gradle=noGPlay
    forceversion=yes
    prebuild=sed -i -e '/withGPlayCompile/d' -e 's/8g/2g/' build.gradle

Build:5.6.5,272
    commit=5.6.5
    subdir=app
    gradle=noGPlay
    forceversion=yes
    prebuild=sed -i -e '/withGPlayCompile/d' -e 's/8g/2g/' build.gradle

Build:5.6.5-alpha5,282
    commit=5.6.5-alpha5
    subdir=app
    gradle=noGPlay
    forceversion=yes
    prebuild=sed -i -e '/withGPlayCompile/d' -e 's/8g/2g/' build.gradle

Auto Update Mode:Version %v
Update Check Mode:Tags
Current Version:5.6.5-alpha5
Current Version Code:282
